{
    "code": 200,
    "message": "success",
    "data": {
        "page": 4,
        "totalPage": 4,
        "dataList": [
            {
                "id": 17,
                "title": "Canvas学习笔记之二：绘制",
                "type": "0",
                "description": "Canvas的绘制模型、矩形的绘制、渐变色、图案填充、阴影、路径、描边与填充、线段、圆弧与圆形、贝塞尔曲线、坐标系的变换、剪辑区域",
                "content": "",
                "loginName": "Lin",
                "author": "d26bf3a0140a11eaa1b5f5cf46ed9239",
                "status": "1",
                "routerName": "learning-canvas-2",
                "visitCount": 8,
                "createdAt": "2016-06-15T10:53:11.000Z",
                "tagNames": null
            },
            {
                "id": 7,
                "title": "Canvas学习笔记之一：基础知识",
                "type": "0",
                "description": "Canvas元素、绘图环境、基础数学知识",
                "content": "",
                "loginName": "Lin",
                "author": "d26bf3a0140a11eaa1b5f5cf46ed9239",
                "status": "1",
                "routerName": "learning-canvas-1",
                "visitCount": 8,
                "createdAt": "2016-06-08T11:51:28.000Z",
                "tagNames": null
            }
        ],
        "total": 47
    }
}
{
    "code": 200,
    "message": "success",
    "data": {
        "page": 3,
        "totalPage": 4,
        "dataList": [
            {
                "id": 2,
                "title": "ES6标准入门笔记之一：let与const命令",
                "type": "0",
                "description": "let命令、块级作用域、const命令、跨模块常量",
                "content": "",
                "loginName": "Lin",
                "author": "d26bf3a0140a11eaa1b5f5cf46ed9239",
                "status": "1",
                "routerName": "learning-es6-1",
                "visitCount": 4,
                "createdAt": "2017-03-08T09:29:15.000Z",
                "tagNames": null
            },
            {
                "id": 3,
                "title": "CSS揭秘笔记之八：过渡与动画",
                "type": "0",
                "description": "缓动效果的例子",
                "content": "",
                "loginName": "Lin",
                "author": "d26bf3a0140a11eaa1b5f5cf46ed9239",
                "status": "1",
                "routerName": "learning-css-secrects-8",
                "visitCount": 3,
                "createdAt": "2017-01-22T11:09:16.000Z",
                "tagNames": null
            },
            {
                "id": 27,
                "title": "CSS揭秘笔记之七：结构与布局",
                "type": "0",
                "description": "如何自适应内部元素、精确控制表格列宽、根据兄弟元素的数量来设置样式以及垂直居中的实现方法",
                "content": "",
                "loginName": "Lin",
                "author": "d26bf3a0140a11eaa1b5f5cf46ed9239",
                "status": "1",
                "routerName": "learning-css-secrects-7",
                "visitCount": 3,
                "createdAt": "2017-01-10T10:36:27.000Z",
                "tagNames": null
            },
            {
                "id": 16,
                "title": "CSS揭秘笔记之六：用户体验",
                "type": "0",
                "description": "扩大可点击区域的方法、纯CSS实现的自定义复选框以及如何通过模糊来弱化背景",
                "content": "",
                "loginName": "Lin",
                "author": "d26bf3a0140a11eaa1b5f5cf46ed9239",
                "status": "1",
                "routerName": "learning-css-secrects-6",
                "visitCount": 13,
                "createdAt": "2016-12-20T14:33:58.000Z",
                "tagNames": null
            },
            {
                "id": 9,
                "title": "转盘抽奖的前端实现",
                "type": "0",
                "description": "Canavs绘制一个抽奖的转盘，用于营销活动页面。",
                "content": "",
                "loginName": "Lin",
                "author": "d26bf3a0140a11eaa1b5f5cf46ed9239",
                "status": "1",
                "routerName": "working-canvas-turnTableDraw",
                "visitCount": 3,
                "createdAt": "2016-12-07T12:43:05.000Z",
                "tagNames": null
            },
            {
                "id": 37,
                "title": "CSS揭秘笔记之五：字体排印",
                "type": "0",
                "description": "插入换行、文本行的斑马条纹效果、自定义下划线、各种文字效果",
                "content": "",
                "loginName": "Lin",
                "author": "d26bf3a0140a11eaa1b5f5cf46ed9239",
                "status": "1",
                "routerName": "learning-css-secrects-5",
                "visitCount": 4,
                "createdAt": "2016-12-05T09:31:24.000Z",
                "tagNames": null
            },
            {
                "id": 25,
                "title": "CSS揭秘笔记之四：视觉效果",
                "type": "0",
                "description": "单侧投影、不规则投影、染色效果、折角效果",
                "content": "",
                "loginName": "Lin",
                "author": "d26bf3a0140a11eaa1b5f5cf46ed9239",
                "status": "1",
                "routerName": "learning-css-secrects-4",
                "visitCount": 8,
                "createdAt": "2016-11-20T14:29:07.000Z",
                "tagNames": null
            },
            {
                "id": 14,
                "title": "CSS揭秘笔记之三：形状",
                "type": "0",
                "description": "讲述各种椭圆效果，平行四边形、菱形、切角以及饼图的实现",
                "content": "",
                "loginName": "Lin",
                "author": "d26bf3a0140a11eaa1b5f5cf46ed9239",
                "status": "1",
                "routerName": "learning-css-secrects-3",
                "visitCount": 5,
                "createdAt": "2016-11-08T13:26:34.000Z",
                "tagNames": null
            },
            {
                "id": 34,
                "title": "CSS揭秘笔记之二：背景与边框",
                "type": "0",
                "description": "讲述半透明边框、多重边框、边框内圆角以及条纹背景、背景定位的实现",
                "content": "",
                "loginName": "Lin",
                "author": "d26bf3a0140a11eaa1b5f5cf46ed9239",
                "status": "1",
                "routerName": "learning-css-secrects-2",
                "visitCount": 10,
                "createdAt": "2016-11-03T14:23:44.000Z",
                "tagNames": null
            },
            {
                "id": 19,
                "title": "CSS揭秘笔记之一：前言",
                "type": "0",
                "description": "前言概述、编程理念、特性检测、编码技巧",
                "content": "",
                "loginName": "Lin",
                "author": "d26bf3a0140a11eaa1b5f5cf46ed9239",
                "status": "1",
                "routerName": "learning-css-secrects-1",
                "visitCount": 3,
                "createdAt": "2016-10-30T11:20:46.000Z",
                "tagNames": null
            },
            {
                "id": 1,
                "title": "Canvas学习笔记之七：物理效果",
                "type": "0",
                "description": "自由落体、抛物线运动、钟摆运动",
                "content": "",
                "loginName": "Lin",
                "author": "d26bf3a0140a11eaa1b5f5cf46ed9239",
                "status": "1",
                "routerName": "learning-canvas-7",
                "visitCount": 7,
                "createdAt": "2016-07-19T11:57:53.000Z",
                "tagNames": null
            },
            {
                "id": 35,
                "title": "Canvas学习笔记之六：精灵",
                "type": "0",
                "description": "精灵的定义、绘制器、动画循环",
                "content": "",
                "loginName": "Lin",
                "author": "d26bf3a0140a11eaa1b5f5cf46ed9239",
                "status": "1",
                "routerName": "learning-canvas-6",
                "visitCount": 2,
                "createdAt": "2016-07-15T13:56:50.000Z",
                "tagNames": null
            },
            {
                "id": 30,
                "title": "Canvas学习笔记之五：动画",
                "type": "0",
                "description": "动画循环、帧速率的计算、动画的一些原则",
                "content": "",
                "loginName": "Lin",
                "author": "d26bf3a0140a11eaa1b5f5cf46ed9239",
                "status": "1",
                "routerName": "learning-canvas-5",
                "visitCount": 5,
                "createdAt": "2016-07-10T14:50:43.000Z",
                "tagNames": null
            },
            {
                "id": 23,
                "title": "Canvas学习笔记之四：图像与视频",
                "type": "0",
                "description": "图像的绘制、离屏Canvas、操作像素",
                "content": "",
                "loginName": "Lin",
                "author": "d26bf3a0140a11eaa1b5f5cf46ed9239",
                "status": "1",
                "routerName": "learning-canvas-4",
                "visitCount": 6,
                "createdAt": "2016-06-30T09:54:51.000Z",
                "tagNames": null
            },
            {
                "id": 21,
                "title": "Canvas学习笔记之三：文本",
                "type": "0",
                "description": "文本的描边与填充、字型属性font设置、文本的定位",
                "content": "",
                "loginName": "Lin",
                "author": "d26bf3a0140a11eaa1b5f5cf46ed9239",
                "status": "1",
                "routerName": "learning-canvas-3",
                "visitCount": 5,
                "createdAt": "2016-06-25T11:03:57.000Z",
                "tagNames": null
            }
        ],
        "total": 47
    }
}
{
    "code": 200,
    "message": "success",
    "data": {
        "page": 2,
        "totalPage": 4,
        "dataList": [
            {
                "id": 33,
                "title": "数字滚动组件ScrollNumber的实现",
                "type": "0",
                "description": "一种有数字滚动效果的Vue.js组件实现",
                "content": "",
                "loginName": "Lin",
                "author": "d26bf3a0140a11eaa1b5f5cf46ed9239",
                "status": "1",
                "routerName": "working-project-scrollNumber",
                "visitCount": 16,
                "createdAt": "2018-04-11T11:02:08.000Z",
                "tagNames": null
            },
            {
                "id": 12,
                "title": "ApiCloud平台的使用",
                "type": "0",
                "description": "云平台ApiCloud提供了免费的云数据库已经操作数据的Api接口，记录下简单的使用方法。",
                "content": "",
                "loginName": "Lin",
                "author": "d26bf3a0140a11eaa1b5f5cf46ed9239",
                "status": "1",
                "routerName": "working-project-apiCloud",
                "visitCount": 8,
                "createdAt": "2018-03-16T12:04:55.000Z",
                "tagNames": null
            },
            {
                "id": 38,
                "title": "React学习笔记之二：漫谈React",
                "type": "0",
                "description": "React中的事件系统、表单、样式处理、组件之间的通信方式",
                "content": "",
                "loginName": "Lin",
                "author": "d26bf3a0140a11eaa1b5f5cf46ed9239",
                "status": "1",
                "routerName": "learning-react-2",
                "visitCount": 6,
                "createdAt": "2017-11-05T12:09:19.000Z",
                "tagNames": null
            },
            {
                "id": 24,
                "title": "React学习笔记之一：初入React世界",
                "type": "0",
                "description": "React组件、数据流、生命周期的介绍",
                "content": "",
                "loginName": "Lin",
                "author": "d26bf3a0140a11eaa1b5f5cf46ed9239",
                "status": "1",
                "routerName": "learning-react-1",
                "visitCount": 2,
                "createdAt": "2017-10-29T12:36:48.000Z",
                "tagNames": null
            },
            {
                "id": 11,
                "title": "Canvas绘制的时钟",
                "type": "0",
                "description": "随时间走动的时钟",
                "content": "",
                "loginName": "Lin",
                "author": "d26bf3a0140a11eaa1b5f5cf46ed9239",
                "status": "1",
                "routerName": "example-canvas-clock",
                "visitCount": 14,
                "createdAt": "2017-06-17T13:41:14.000Z",
                "tagNames": null
            },
            {
                "id": 36,
                "title": "ES6标准入门笔记之十一：二进制数组",
                "type": "0",
                "description": "ArrayBuffer对象、TypedArray视图、复合视图、DataView视图",
                "content": "",
                "loginName": "Lin",
                "author": "d26bf3a0140a11eaa1b5f5cf46ed9239",
                "status": "1",
                "routerName": "learning-es6-11",
                "visitCount": 2,
                "createdAt": "2017-05-18T14:42:37.000Z",
                "tagNames": null
            },
            {
                "id": 31,
                "title": "ES6标准入门笔记之十：Proxy和Reflect",
                "type": "0",
                "description": "Proxy与Reflect的概述",
                "content": "",
                "loginName": "Lin",
                "author": "d26bf3a0140a11eaa1b5f5cf46ed9239",
                "status": "1",
                "routerName": "learning-es6-10",
                "visitCount": 7,
                "createdAt": "2017-05-14T13:41:38.000Z",
                "tagNames": null
            },
            {
                "id": 28,
                "title": "ES6标准入门笔记之九：Symbol",
                "type": "0",
                "description": "Symbol的概述、Symbol作为属性名的遍历",
                "content": "",
                "loginName": "Lin",
                "author": "d26bf3a0140a11eaa1b5f5cf46ed9239",
                "status": "1",
                "routerName": "learning-es6-9",
                "visitCount": 1,
                "createdAt": "2017-05-13T12:40:57.000Z",
                "tagNames": null
            },
            {
                "id": 20,
                "title": "ES6标准入门笔记之八：对象的扩展",
                "type": "0",
                "description": "属性的简洁表示法、方法的name属性、属性的可枚举性、属性的遍历、对象的扩展运算符以及对象的新增方法",
                "content": "",
                "loginName": "Lin",
                "author": "d26bf3a0140a11eaa1b5f5cf46ed9239",
                "status": "1",
                "routerName": "learning-es6-8",
                "visitCount": 5,
                "createdAt": "2017-05-09T10:39:30.000Z",
                "tagNames": null
            },
            {
                "id": 13,
                "title": "ES6标准入门笔记之七：函数的扩展",
                "type": "0",
                "description": "函数参数的默认值、rest参数、扩展运算符、箭头函数以及函数的绑定",
                "content": "",
                "loginName": "Lin",
                "author": "d26bf3a0140a11eaa1b5f5cf46ed9239",
                "status": "1",
                "routerName": "learning-es6-7",
                "visitCount": 6,
                "createdAt": "2017-05-07T13:30:08.000Z",
                "tagNames": null
            },
            {
                "id": 6,
                "title": "ES6标准入门笔记之六：数组的扩展",
                "type": "0",
                "description": "数组的新增方法：Array.from()、Array.of()等",
                "content": "",
                "loginName": "Lin",
                "author": "d26bf3a0140a11eaa1b5f5cf46ed9239",
                "status": "1",
                "routerName": "learning-es6-6",
                "visitCount": 4,
                "createdAt": "2017-03-21T14:36:58.000Z",
                "tagNames": null
            },
            {
                "id": 32,
                "title": "ES6标准入门笔记之五：数值的扩展",
                "type": "0",
                "description": "二进制和八进制数值表示法、Math对象的扩展、指数运算符以及Math和Number新增的方法",
                "content": "",
                "loginName": "Lin",
                "author": "d26bf3a0140a11eaa1b5f5cf46ed9239",
                "status": "1",
                "routerName": "learning-es6-5",
                "visitCount": 2,
                "createdAt": "2017-03-17T11:35:04.000Z",
                "tagNames": null
            },
            {
                "id": 26,
                "title": "ES6标准入门笔记之四：正则的扩展",
                "type": "0",
                "description": "RegExp构造函数、字符串的正则方法以及新增的u、y修饰符",
                "content": "",
                "loginName": "Lin",
                "author": "d26bf3a0140a11eaa1b5f5cf46ed9239",
                "status": "1",
                "routerName": "learning-es6-4",
                "visitCount": 3,
                "createdAt": "2017-03-13T13:33:43.000Z",
                "tagNames": null
            },
            {
                "id": 22,
                "title": "ES6标准入门笔记之三：字符串的扩展",
                "type": "0",
                "description": "字符的Unicode表示法、字符串的遍历、模板字符串、模板编译以及其他新增的字符串方法",
                "content": "",
                "loginName": "Lin",
                "author": "d26bf3a0140a11eaa1b5f5cf46ed9239",
                "status": "1",
                "routerName": "learning-es6-3",
                "visitCount": 2,
                "createdAt": "2017-03-11T12:32:48.000Z",
                "tagNames": null
            },
            {
                "id": 15,
                "title": "ES6标准入门笔记之二：变量的解构赋值",
                "type": "0",
                "description": "数组、对象、字符串、数值和布尔值以及函数参数的解构赋值",
                "content": "",
                "loginName": "Lin",
                "author": "d26bf3a0140a11eaa1b5f5cf46ed9239",
                "status": "1",
                "routerName": "learning-es6-2",
                "visitCount": 3,
                "createdAt": "2017-03-09T11:31:05.000Z",
                "tagNames": null
            }
        ],
        "total": 47
    }
}
{
    "code": 200,
    "message": "success",
    "data": {
        "page": 1,
        "totalPage": 4,
        "dataList": [
            {
                "id": 48,
                "title": "WebGL学习笔记之七：光照",
                "type": "0",
                "description": "讲述如何在三维场景中实现不同类型的光照以及其产生的效果。包括点光源光、平行光、环境光、漫反射以及环境反射等内容。",
                "content": "",
                "loginName": "Lin",
                "author": "d26bf3a0140a11eaa1b5f5cf46ed9239",
                "status": "1",
                "routerName": "learning-webgl-07",
                "visitCount": 88,
                "createdAt": "2021-05-25T06:25:28.000Z",
                "tagNames": null
            },
            {
                "id": 47,
                "title": "WebGL学习笔记之六：进入三维世界",
                "type": "0",
                "description": "将讲解视图矩阵、投影矩阵；学习如何控制三维可视空间，处理物体的前后关系，以及绘制三维的立方体。",
                "content": "",
                "loginName": "Lin",
                "author": "d26bf3a0140a11eaa1b5f5cf46ed9239",
                "status": "1",
                "routerName": "learning-webgl-06",
                "visitCount": 110,
                "createdAt": "2021-05-19T08:48:12.000Z",
                "tagNames": null
            },
            {
                "id": 46,
                "title": "WebGL学习笔记之五：着色器语言",
                "type": "0",
                "description": "将讲解OpenGL ES着色器语言及其关键特性，保护变量类型、矢量、矩阵运算等。",
                "content": "",
                "loginName": "Lin",
                "author": "d26bf3a0140a11eaa1b5f5cf46ed9239",
                "status": "1",
                "routerName": "learning-webgl-05",
                "visitCount": 15,
                "createdAt": "2021-03-09T13:54:33.000Z",
                "tagNames": null
            },
            {
                "id": 45,
                "title": "WebGL学习笔记之四：颜色与纹理",
                "type": "0",
                "description": "将描述如何将顶点的其他非坐标数据传入顶点着色器；图元光栅化的过程；将图像（纹理）映射到图形或者三维对象的表面。",
                "content": "",
                "loginName": "Lin",
                "author": "d26bf3a0140a11eaa1b5f5cf46ed9239",
                "status": "1",
                "routerName": "learning-webgl-04",
                "visitCount": 70,
                "createdAt": "2021-02-13T04:18:43.000Z",
                "tagNames": null
            },
            {
                "id": 44,
                "title": "WebGL学习笔记之三：高级变换与动画基础",
                "type": "0",
                "description": "学习使用一个矩阵变换库，并实现简单的动画效果",
                "content": "",
                "loginName": "Lin",
                "author": "d26bf3a0140a11eaa1b5f5cf46ed9239",
                "status": "1",
                "routerName": "learning-webgl-03",
                "visitCount": 93,
                "createdAt": "2021-02-12T07:32:27.000Z",
                "tagNames": null
            },
            {
                "id": 43,
                "title": "WebGL学习笔记之二：绘制和变换三角形",
                "type": "0",
                "description": "描述WebGL如何绘制三角形，使用三角形绘制其他类型的基本图形以及基本的移动、旋转、缩放等变换。",
                "content": "",
                "loginName": "Lin",
                "author": "d26bf3a0140a11eaa1b5f5cf46ed9239",
                "status": "1",
                "routerName": "learning-webgl-02",
                "visitCount": 99,
                "createdAt": "2021-02-05T14:20:31.000Z",
                "tagNames": null
            },
            {
                "id": 42,
                "title": "JavsScript代码片段1：常用函数",
                "type": "0",
                "description": "代码片段",
                "content": "",
                "loginName": "Lin",
                "author": "d26bf3a0140a11eaa1b5f5cf46ed9239",
                "status": "1",
                "routerName": "code-fragment-01",
                "visitCount": 8,
                "createdAt": "2021-01-23T00:20:27.000Z",
                "tagNames": null
            },
            {
                "id": 41,
                "title": "WebGl学习笔记之一：概述与入门",
                "type": "0",
                "description": "书籍《WebGL编程指南》的笔记第一篇",
                "content": "",
                "loginName": "Lin",
                "author": "d26bf3a0140a11eaa1b5f5cf46ed9239",
                "status": "1",
                "routerName": "learning-webgl-01",
                "visitCount": 76,
                "createdAt": "2020-12-20T09:24:16.000Z",
                "tagNames": null
            },
            {
                "id": 40,
                "title": "从无人机航拍图到高清地图影像",
                "type": "0",
                "description": "使用Pix4d、GlobalMapper软件处理无人机航拍图片并生成高清影像地图的相关经验方法",
                "content": "",
                "loginName": "Lin",
                "author": "d26bf3a0140a11eaa1b5f5cf46ed9239",
                "status": "1",
                "routerName": "working-odm-1",
                "visitCount": 147,
                "createdAt": "2020-04-24T07:47:50.000Z",
                "tagNames": null
            },
            {
                "id": 39,
                "title": "裕丰科技官网的开场动效",
                "type": "0",
                "description": "svg与three.js结合tweenMax.js实现的一种效果",
                "content": "",
                "loginName": "Lin",
                "author": "d26bf3a0140a11eaa1b5f5cf46ed9239",
                "status": "1",
                "routerName": "working-yf-openani",
                "visitCount": 402,
                "createdAt": "2019-12-02T05:54:54.000Z",
                "tagNames": null
            },
            {
                "id": 18,
                "title": "你不知道的JavaScript（下卷）笔记",
                "type": "0",
                "description": "JavaScript基础内容以及ES6的概要描述",
                "content": "",
                "loginName": "Lin",
                "author": "d26bf3a0140a11eaa1b5f5cf46ed9239",
                "status": "1",
                "routerName": "learning-javascript-3",
                "visitCount": 101,
                "createdAt": "2018-06-09T13:24:35.000Z",
                "tagNames": null
            },
            {
                "id": 8,
                "title": "你不知道的JavaScript（中卷）笔记",
                "type": "0",
                "description": "各种类型以及类型之间的强制转换方法",
                "content": "",
                "loginName": "Lin",
                "author": "d26bf3a0140a11eaa1b5f5cf46ed9239",
                "status": "1",
                "routerName": "learning-javascript-2",
                "visitCount": 23,
                "createdAt": "2018-06-05T09:23:02.000Z",
                "tagNames": null
            },
            {
                "id": 5,
                "title": "使用PhotoSwipe构建图片预览组件",
                "type": "0",
                "description": "将图片预览插件photoswipe封装成Vue.js中的组件。",
                "content": "",
                "loginName": "Lin",
                "author": "d26bf3a0140a11eaa1b5f5cf46ed9239",
                "status": "1",
                "routerName": "working-project-photoSwipe",
                "visitCount": 11,
                "createdAt": "2018-05-23T08:49:26.000Z",
                "tagNames": null
            },
            {
                "id": 4,
                "title": "你不知道的JavaScript（上卷）笔记",
                "type": "0",
                "description": "作用域、this的绑定规则、Object、Class、原型与行为委托",
                "content": "",
                "loginName": "Lin",
                "author": "d26bf3a0140a11eaa1b5f5cf46ed9239",
                "status": "1",
                "routerName": "learning-javascript-1",
                "visitCount": 12,
                "createdAt": "2018-05-20T12:53:46.000Z",
                "tagNames": null
            },
            {
                "id": 10,
                "title": "MpVue中使用WeCropper实现图片裁剪",
                "type": "0",
                "description": "在美团的基于Vue.js的小程序框架mpvue中实现图片的本地裁剪，并修复ios下提交图片数据之后图片翻转的问题。",
                "content": "",
                "loginName": "Lin",
                "author": "d26bf3a0140a11eaa1b5f5cf46ed9239",
                "status": "1",
                "routerName": "working-wx-weCropper",
                "visitCount": 38,
                "createdAt": "2018-05-12T11:28:46.000Z",
                "tagNames": null
            }
        ],
        "total": 47
    }
}